…
``` r
(mini_gapminder <- gapminder %>%
  select(country, year, lifeExp) %>% #keep only variables we want
  filter(country == "Chile" | country == "Canada" )) # keep only countries we want
```

    ## # A tibble: 24 x 3
    ##    country  year lifeExp
    ##    <fct>   <int>   <dbl>
    ##  1 Canada   1952    68.8
    ##  2 Canada   1957    70.0
    ##  3 Canada   1962    71.3
    ##  4 Canada   1967    72.1
    ##  5 Canada   1972    72.9
    ##  6 Canada   1977    74.2
    ##  7 Canada   1982    75.8
    ##  8 Canada   1987    76.9
    ##  9 Canada   1992    78.0
    ## 10 Canada   1997    78.6
    ## # ... with 14 more rows
…
